{
  "gitlab_io_a": {
    "*.gitlab.io.": {
      "records": [
        "35.185.44.232"
      ],
      "ttl": 300
    },
    "*.serverless.gitlab.io.": {
      "records": [
        "35.185.44.232"
      ],
      "ttl": 300
    },
    "*.gprd.gitlab.io.": {
      "records": [
        "35.185.44.232"
      ],
      "ttl": 300
    },
    "*.serverless.gprd.gitlab.io.": {
      "records": [
        "35.185.44.232"
      ],
      "ttl": 300
    },
    "*.gstg.gitlab.io.": {
      "records": [
        "35.229.69.78"
      ],
      "ttl": 300
    },
    "*.serverless.gstg.gitlab.io.": {
      "records": [
        "35.229.69.78"
      ],
      "ttl": 300
    },
    "*.pages.gstg.gitlab.io.": {
      "records": [
        "35.229.69.78"
      ],
      "ttl": 300
    },
    "pages.gitlab.io.": {
      "records": [
        "35.185.44.232"
      ],
      "ttl": 300
    },
    "serverless.gitlab.io.": {
      "records": [
        "35.185.44.232"
      ],
      "ttl": 300
    },
    "*.pages.pre.gitlab.io.": {
      "records": [
        "104.196.191.218"
      ],
      "ttl": 300
    },
    "*.serverless.pre.gitlab.io.": {
      "records": [
        "104.196.191.218"
      ],
      "ttl": 300
    },
    "*.staging.gitlab.io.": {
      "records": [
        "35.229.69.78"
      ],
      "ttl": 300
    },
    "*.serverless.staging.gitlab.io.": {
      "records": [
        "35.229.69.78"
      ],
      "ttl": 300
    }
  },
  "gitlab_io_caa": {
    "gitlab.io.": {
      "records": [
        {"flags": 0, "tag": "issue", "value": "digicert.com"},
        {"flags": 0, "tag": "issue", "value": "globalsign.com"},
        {"flags": 0, "tag": "issue", "value": "sectigo.com"},
        {"flags": 0, "tag": "iodef", "value": "mailto:security@gitlab.com"}
      ],
      "ttl": 300
    }
  },
  "gitlab_io_mx": {
    "gitlab.io.": {
      "records": [
        {"prio": 10, "value":"mxa.mailgun.org."},
        {"prio": 10, "value":"mxb.mailgun.org."}
      ],
      "ttl": 300
    }
  },
  "gitlab_io_ns": {
    "gitlab.io.": {
      "records": [
        "ns-1697.awsdns-20.co.uk.",
        "ns-288.awsdns-36.com.",
        "ns-1116.awsdns-11.org.",
        "ns-926.awsdns-51.net."
      ],
      "ttl": 300
    }
  },
  "gitlab_io_soa": {
    "gitlab.io.": {
      "records": [
        "ns-1697.awsdns-20.co.uk. awsdns-hostmaster.amazon.com. 1 7200 900 1209600 86400"
      ],
      "ttl": 900
    }
  },
  "gitlab_io_txt": {
    "gitlab.io.": {
      "records": [
        "_globalsign-domain-verification=4azHJ7gL04Dr8r2VR0txu7OrWg7uZpU6v7LOHVP1b3"
      ],
      "ttl": 5
    },
    "smtp._domainkey.gitlab.io.": {
      "records": [
        "k=rsa; p=MIGfMA0GCSqGSIb3DQEBAQUAA4GNADCBiQKBgQDusnQk2VVX7W5bxfZuh5y7165dceQuKIetErFLDzluoDajKyFFG0uQYTj4Va++srEaVHN4EQgFjR4X293fMbsMktRspbirh7aDmsbafdX+Sn3CbVCePN/Iwy95fu9/AdmWBSF7I1BmRbcrG+swJCImkx6Dc0xgcllFxDnVPQXoSwIDAQAB"
      ],
      "ttl": 300
    },
    "_psl.gitlab.io.": {
      "records": [
        "https://github.com/publicsuffix/list/pull/268"
      ],
      "ttl": 300
    }
  }
}
